{
    "manifests": {
        "chill-project/chill-bundles": {
            "manifest": {
                "bundles": {
                    "Chill\\MainBundle\\ChillMainBundle": [
                        "all"
                    ],
                    "Chill\\PersonBundle\\ChillPersonBundle": [
                        "all"
                    ],
                    "Chill\\CustomFieldsBundle\\ChillCustomFieldsBundle": [
                        "all"
                    ],
                    "Chill\\ActivityBundle\\ChillActivityBundle": [
                        "all"
                    ],
                    "Chill\\DocStoreBundle\\ChillDocStoreBundle": [
                        "all"
                    ],
                    "Chill\\DocGeneratorBundle\\ChillDocGeneratorBundle": [
                        "all"
                    ],
                    "Chill\\AsideActivityBundle\\ChillAsideActivityBundle": [
                        "all"
                    ],
                    "Chill\\CalendarBundle\\ChillCalendarBundle": [
                        "all"
                    ],
                    "Chill\\TaskBundle\\ChillTaskBundle": [
                        "all"
                    ],
                    "Chill\\ThirdPartyBundle\\ChillThirdPartyBundle": [
                        "all"
                    ],
                    "Chill\\BudgetBundle\\ChillBudgetBundle": [
                        "all"
                    ],
                    "Chill\\WopiBundle\\ChillWopiBundle": [
                        "all"
                    ],
                    "ChampsLibres\\WopiBundle\\WopiBundle": [
                        "all"
                    ],
                    "Chill\\EventBundle\\ChillEventBundle": [
                        "all"
                    ]
                },
                "copy-from-recipe": {
                    "config/": "%CONFIG_DIR%/"
                },
                "env": {
                    "ADMIN_PASSWORD": "%generate(secret)%"
                },
                "add-lines": {
                    "file": "config/packages/security.yaml",
                    "position": "after_target",
                    "target": "access_control",
                    "warn_if_missing": true,
                    "content": "        - { path: ^/(login|logout), roles: IS_AUTHENTICATED_ANONYMOUSLY }\n        - { path: ^/public, roles: IS_AUTHENTICATED_ANONYMOUSLY }\n        - { path: ^/wopi, roles: IS_AUTHENTICATED_FULLY }\n        # access for homepage, the homepage redirect admin to admin section\n        - { path: ^/$, roles: [ IS_AUTHENTICATED_REMEMBERED ] }\n        - { path: ^/homepage$, roles: [ IS_AUTHENTICATED_REMEMBERED ] }\n        # idem\n        - { path: ^/([a-z]+/)?homepage, roles: [ IS_AUTHENTICATED_REMEMBERED ] }\n        # admin section, only for admin\n        - { path: ^/([a-z]+/)?admin, roles: ROLE_ADMIN }\n        # other pages, only for regular user (no admin)\n        - { path: ^/, roles: ROLE_USER }"
                }
            },
            "files": {
                "config/packages/chill.yaml": {
                    "contents": [
                        "chill_main:",
                        "    available_languages: [ '%env(resolve:LOCALE)%' ]",
                        "    available_countries: ['BE', 'FR']",
                        "    notifications:",
                        "        from_email: '%env(resolve:NOTIFICATION_FROM_EMAIL)%'",
                        "        from_name: '%env(resolve:NOTIFICATION_FROM_NAME)%'",
                        "        host: '%env(resolve:NOTIFICATION_HOST)%'",
                        "    redis:",
                        "        host: '%env(resolve:REDIS_HOST)%'",
                        "        port: '%env(resolve:REDIS_PORT)%'",
                        "    phone_helper:",
                        "        twilio_sid: '%env(resolve:TWILIO_SID)%'",
                        "        twilio_secret: '%env(resolve:TWILIO_SECRET)%'",
                        "        default_carrier_code: '%env(resolve:DEFAULT_CARRIER_CODE)%'",
                        "    short_messages:",
                        "        dsn: '%env(string:SHORT_MESSAGE_DSN)%'",
                        "    acl:",
                        "        form_show_scopes: true",
                        "        form_show_centers: true",
                        "    access_global_history: false",
                        "    access_user_change_password: true",
                        "    access_permissions_group_list: true",
                        "    add_address:",
                        "        default_country: '%env(string:ADD_ADDRESS_DEFAULT_COUNTRY)%'",
                        "        map_center:",
                        "            x: '%env(float:ADD_ADDRESS_MAP_CENTER_X)%'",
                        "            y: '%env(float:ADD_ADDRESS_MAP_CENTER_Y)%'",
                        "            z: '%env(float:ADD_ADDRESS_MAP_CENTER_Z)%'",
                        "",
                        "when@test:",
                        "    chill_main:",
                        "        available_languages:",
                        "            - 'fr'",
                        "            - 'en'",
                        "",
                        "chill_custom_fields:",
                        "    show_empty_values_in_views: false",
                        "",
                        "chill_person:",
                        "    create_person_allowed: false",
                        "    create_parcours_allowed: false",
                        "    allow_multiple_simultaneous_accompanying_periods: true",
                        "    accompanying_periods_fields:",
                        "        user: visible",
                        "        # createdBy, step, origin, intensity, scopes, requestor, anonymous, emergency, confidential : visible(default) | hidden",
                        "    person_fields:",
                        "        acceptEmail: hidden",
                        "        alt_names:",
                        "            -   key: jeune_fille",
                        "                labels:",
                        "                    lang: fr",
                        "                    label: Nom de naissance",
                        "        marital_status: visible",
                        "        civility: visible",
                        "        deathdate: visible",
                        "    validation:",
                        "        center_required: true",
                        "",
                        "chill_activity:",
                        "    form:",
                        "        time_duration:",
                        "            -",
                        "                label: '5 minutes'",
                        "                seconds: 300",
                        "            -",
                        "                label: '10 minutes'",
                        "                seconds: 600",
                        "            -",
                        "                label: '15 minutes'",
                        "                seconds: 900",
                        "            -",
                        "                label: '20 minutes'",
                        "                seconds: 1200",
                        "            -",
                        "                label: '25 minutes'",
                        "                seconds: 1500",
                        "            -",
                        "                label: '30 minutes'",
                        "                seconds: 1800",
                        "            -",
                        "                label: '45 minutes'",
                        "                seconds: 2700",
                        "            -",
                        "                label: '1 hour'",
                        "                seconds: 3600",
                        "            -",
                        "                label: '1 hour 15'",
                        "                seconds: 4500",
                        "            -",
                        "                label: '1 hour 30'",
                        "                seconds: 5400",
                        "            -",
                        "                label: '1 hour 45'",
                        "                seconds: 6300",
                        "            -",
                        "                label: '2 hours'",
                        "                seconds: 7200",
                        "            -",
                        "                label: '2 hours 15'",
                        "                seconds: 8100",
                        "            -",
                        "                label: '2 hours 30'",
                        "                seconds: 9000",
                        "            -",
                        "                label: '2 hours 45'",
                        "                seconds: 9900",
                        "            -",
                        "                label: '3 hours'",
                        "                seconds: 10800",
                        "            -",
                        "                label: '3 hours 30'",
                        "                seconds: 12600",
                        "            -",
                        "                label: '4 hours'",
                        "                seconds: 14400",
                        "            -",
                        "                label: '4 hours 30'",
                        "                seconds: 16200",
                        "            -",
                        "                label: '5 hours'",
                        "                seconds: 18000",
                        ""
                    ],
                    "executable": false
                },
                "config/packages/chill_budget.yaml": {
                    "contents": [
                        "chill_budget:",
                        "      resources:",
                        "            - { key: fixed_contract, labels: [{ lang: fr, label: \"Salari\u00e9 en CDI\" }]}",
                        "            - { key: temporary_contract, labels: [{ lang: fr, label: \"Salari\u00e9 en CDD\"}]}",
                        "            - { key: interim, labels: [{ lang: fr, label: \"Salari\u00e9 en int\u00e9rim\"}]}",
                        "            - { key: other_revenues, labels: [{ lang: fr, label: \"Revenus non salari\u00e9s, commer\u00e7ant, artisan,...\"}]}",
                        "            - { key: agricultural_activity, labels: [{ lang: fr, label: \"Exploitant agricole\"}]}",
                        "            - { key: chomage_ass, labels: [{ lang: fr, label: \"Allocations ch\u00f4mage ASS\"}]}",
                        "            - { key: chomage_are, labels: [{ lang: fr, label: \"Allocations ch\u00f4mage ARE\"}]}",
                        "            - { key: remuneration_stage, labels: [{ lang: fr, label: \"R\u00e9mun\u00e9ration de stage, d\u2019apprentissage,...\"}]}",
                        "            - { key: daily_allowences, labels: [{ lang: fr, label: \"Indemnit\u00e9s journali\u00e8res\"}]}",
                        "            - { key: others, labels: [{ lang: fr, label: \"Autres\"}]}",
                        "            - { key: pension, labels: [{ lang: fr, label: \"Pension de retraite\"}]}",
                        "            - { key: invalidity, labels: [{ lang: fr, label: \"Pension d'invalidit\u00e9\"}]}",
                        "            - { key: reversion, labels: [{ lang: fr, label: \"Pension de r\u00e9version\"}]}",
                        "            - { key: widowhood, labels: [{ lang: fr, label: \"Pension de veuvage\"}]}",
                        "            - { key: military, labels: [{ lang: fr, label: \"Pension militaire\"}]}",
                        "            - { key: food, labels: [{ lang: fr, label: \"Pension alimentaire\"}]}",
                        "            - { key: compensation, labels: [{ lang: fr, label: \"Pension de prestation compensatoire\"}]}",
                        "            - { key: allocation_handicap_adult, labels: [{ lang: fr, label: \"Allocation aux adultes handicap\u00e9s\"}]}",
                        "            - { key: rsa, labels: [{ lang: fr, label: \"RSA\"}]}",
                        "            - { key: annuity_accident, labels: [{ lang: fr, label: \"Rente accident\"}]}",
                        "            - { key: premium_al_pl, labels: [{ lang: fr, label: \"Prime d\u2019activit\u00e9 AL/APL au b\u00e9n\u00e9ficiaire\"}]}",
                        "            - { key: premium_thirdparty, labels: [{ lang: fr, label: \"Prime d\u2019activit\u00e9 vers\u00e9 au tiers\"}]}",
                        "            - { key: other_income, labels: [{ lang: fr, label: \"Autres ressources (ARS, ...)\"}]}",
                        "            - { key: allocation_family, labels: [{ lang: fr, label: \"Allocations familiales\"}]}",
                        "            - { key: allocation_basic, labels: [{ lang: fr, label: \"Allocation de base\"}]}",
                        "            - { key: free_choice_saving, labels: [{ lang: fr, label: \"Compl\u00e9ment de libre choix du mode de garde\"}]}",
                        "            - { key: shared_benefits_child, labels: [{ lang: fr, label: \"Prestation partag\u00e9e \u00e9ducation de l\u2019enfant\"}]}",
                        "            - { key: complimentary_family, labels: [{ lang: fr, label: \"Compl\u00e9ment familial\"}]}",
                        "            - { key: allocation_family_support, labels: [{ lang: fr, label: \"Allocation de soutien familial\"}]}",
                        "            - { key: allocation_education_child_handicap, labels: [{ lang: fr, label: \"Allocation d\u2019\u00e9ducation de l\u2019enfant handicap\u00e9\"}]}",
                        "",
                        "      charges:",
                        "            - { key: rent, labels: [{ lang: fr, label: \"Loyer\" }]}",
                        "            - { key: home_ownership, labels: [{ lang: fr, label: \"Accession \u00e0 la propri\u00e9t\u00e9\" }]}",
                        "            - { key: costs_accomodation, labels: [{ lang: fr, label: \"Frais d\u2019h\u00e9bergement\" }]}",
                        "            - { key: home_insurance, labels: [{ lang: fr, label: \"Assurance habitation\" }]}",
                        "            - { key: taxes, labels: [{ lang: fr, label: \"Imp\u00f4ts (taxe habitation, taxe fonci\u00e8re, ordures m\u00e9nag\u00e8res, redevances incitatives)\" }]}",
                        "            - { key: impots, labels: [{lang: fr, label: \"Imp\u00f4ts\"}]}",
                        "            - { key: electricity, labels: [{ lang: fr, label: \"Electricit\u00e9\" }]}",
                        "            - { key: gas, labels: [{ lang: fr, label: \"Gaz en bouteille\" }]}",
                        "            - { key: heating, labels: [{ lang: fr, label: \"Autre moyen de chauffage\" }]}",
                        "            - { key: water, labels: [{ lang: fr, label: \"Eau\" }]}",
                        "            - { key: school_fees, labels: [ { lang: fr, label: \"Frais de scolarit\u00e9\"}]}",
                        "            - { key: alimony, labels: [ { lang: fr, label: \"Pension alimentaire \u00e0 reverser\"}]}",
                        "            - { key: child_care, labels: [ { lang: fr, label: \"Frais de garde (en totalit\u00e9)\"}]}",
                        "            - { key: telecom, labels: [ { lang: fr, label: \"Frais de communication fixe\"}]}",
                        "            - { key: mobilephone, labels: [ { lang: fr, label: \"Frais de communication mobile\"}]}",
                        "            - { key: internet, labels: [ { lang: fr, label: \"Frais de communication internet\"}]}",
                        "            - { key: insurance, labels: [{ lang: fr, label: \"Assurances\"}]}",
                        "            - { key: debt_commission, labels: [{ lang: fr, label: \"Saisine de la commission surendettement\"}]}",
                        "            - { key: recovery_plan, labels: [{ lang: fr, label: \"Plan de redressement\"}]}",
                        "            - { key: rpr, labels: [{ lang: fr, label: \"PRP\"}]}",
                        "            - { key: moratoire, labels: [{lang: fr, label: \"Moratoire\"}]}",
                        "            - { key: mutuelle, labels: [{lang: fr, label: \"Mutuelle\"}]}",
                        "            - { key: transport, labels: [{lang: fr, label: \"Frais de transport\"}]}",
                        "            - { key: decouvbank, labels: [{lang: fr, label: \"D\u00e9couvert bancaire utilis\u00e9\"}]}",
                        "            - { key: procsaisie, labels: [{lang: fr, label: \"Proc\u00e9dure de saisie\"}]}",
                        "            - { key: indus, labels: [{lang: fr, label: \"Indus\"}]}",
                        "            - { key: apurement, labels: [{lang: fr, label: \"Plan d'apurement\"}]}",
                        "            - { key: debt_rent, labels: [{lang: fr, label: \"Dette de loyer (hors APL)\"}]}",
                        "            - { key: debt_property, labels: [{lang: fr, label: \"Dette d'accession \u00e0 la propri\u00e9t\u00e9\"}]}",
                        "            - { key: debt_lodging, labels: [{lang: fr, label: \"Dette de frais d\u2019h\u00e9bergement\"}]}",
                        "            - { key: debt_electricity, labels: [{lang: fr, label: \"Dette d'\u00e9lectricit\u00e9\"}]}",
                        "            - { key: debt_water, labels: [{lang: fr, label: \"Dette d'eau\"}]}",
                        "            - { key: debt_heating, labels: [{lang: fr, label: \"Dette d'autre moyen de chauffage\"}]}",
                        "            - { key: debt_gas, labels: [{lang: fr, label: \"Dette de gaz en bouteille\"}]}",
                        "            - { key: debt_house_insurance, labels: [{lang: fr, label: \"Dette d'assurance habitation\"}]}",
                        "            - { key: debt_housing_taxes, labels: [{lang: fr, label: \"Dette d'imp\u00f4ts li\u00e9es au logement\"}]}",
                        "            - { key: debt_taxes, labels: [{lang: fr, label: \"Dette d'imp\u00f4ts autres\"}]}",
                        "            - { key: debt_school, labels: [{lang: fr, label: \"Dette de frais de scolarit\u00e9 (cantine, transport, frais de scolarit\u00e9, frais de garde)\"}]}",
                        "            - { key: debt_alimentation, labels: [{lang: fr, label: \"Dette de pension alimentaire \u00e0 reverser\"}]}",
                        "            - { key: debt_childcare, labels: [{lang: fr, label: \"Dette de frais de garde (en totalit\u00e9)\"}]}",
                        "            - { key: debt_phone, labels: [{lang: fr, label: \"Dette de communication fixe\"}]}",
                        "            - { key: debt_mobile, labels: [{lang: fr, label: \"Dette de communication portable\"}]}",
                        "            - { key: debt_internet, labels: [{lang: fr, label: \"Dette de communication internet\"}]}",
                        "            - { key: debt_car_insurance, labels: [{lang: fr, label: \"Dette d'assurance auto\"}]}",
                        "            - { key: debt_mutual, labels: [{lang: fr, label: \"Dette de mutuelle\"}]}",
                        "            - { key: debt_transport, labels: [{lang: fr, label: \"Dette de frais de transport\"}]}",
                        "            - { key: debt_bank, labels: [{lang: fr, label: \"Dette de d\u00e9couvert bancaire utilis\u00e9\"}]}",
                        "            - { key: debt_garbage, labels: [{lang: fr, label: \"Dette de taxe d\u2019ordures m\u00e9nag\u00e8re\"}]}",
                        "            - { key: debt_other, labels: [{lang: fr, label: \"Dette autre\"}]}",
                        "            - { key: autre, labels: [{lang: fr, label: \"Autre\"}]}",
                        "",
                        ""
                    ],
                    "executable": false
                },
                "config/packages/chill_calendar.yaml": {
                    "contents": [
                        "chill_calendar:",
                        "    remote_calendars_sync:",
                        "        enabled: false",
                        ""
                    ],
                    "executable": false
                },
                "config/packages/chill_doc_store.yaml": {
                    "contents": [
                        "chill_doc_store:",
                        "    openstack:",
                        "        temp_url:",
                        "            temp_url_key:         '%env(resolve:ASYNC_UPLOAD_TEMP_URL_KEY)%'       # Required",
                        "            container:            '%env(resolve:ASYNC_UPLOAD_TEMP_URL_CONTAINER)%' # Required",
                        "            temp_url_base_path:   '%env(resolve:ASYNC_UPLOAD_TEMP_URL_BASE_PATH)%' # Required",
                        ""
                    ],
                    "executable": false
                },
                "config/packages/doctrine_migrations_chill.yaml": {
                    "contents": [
                        "doctrine_migrations:",
                        "    migrations_paths:",
                        "        # migrations for default chill modules",
                        "        'Chill\\Migrations\\Main': '@ChillMainBundle/migrations'",
                        "        'Chill\\Migrations\\Activity': '@ChillActivityBundle/migrations'",
                        "        'Chill\\Migrations\\DocStore': '@ChillDocStoreBundle/migrations'",
                        "        'Chill\\Migrations\\CustomFields': '@ChillCustomFieldsBundle/migrations'",
                        "        'Chill\\Migrations\\Event': '@ChillEventBundle/migrations'",
                        "        'Chill\\Migrations\\Person': '@ChillPersonBundle/migrations'",
                        "        'Chill\\Migrations\\Task': '@ChillTaskBundle/migrations'",
                        "        'Chill\\Migrations\\ThirdParty': '@ChillThirdPartyBundle/migrations'",
                        "        'Chill\\Migrations\\DocGenerator': '@ChillDocGeneratorBundle/migrations'",
                        "        'Chill\\Migrations\\AsideActivity': '@ChillAsideActivityBundle/migrations'",
                        "        'Chill\\Migrations\\Calendar': '@ChillCalendarBundle/migrations'",
                        "        'Chill\\Migrations\\Budget': '@ChillBudgetBundle/migrations'",
                        "    all_or_nothing:",
                        "        true",
                        "",
                        "    services:",
                        "        'Doctrine\\Migrations\\Version\\Comparator': 'Chill\\MainBundle\\Doctrine\\Migrations\\VersionComparator'",
                        ""
                    ],
                    "executable": false
                },
                "config/packages/framework_chill.yaml": {
                    "contents": [
                        "framework:",
                        "    assets:",
                        "        json_manifest_path: '%kernel.project_dir%/public/build/manifest.json'",
                        ""
                    ],
                    "executable": false
                },
                "config/packages/messenger_chill.yaml": {
                    "contents": [
                        "framework:",
                        "    messenger:",
                        "        transports:",
                        "            # https://symfony.com/doc/current/messenger.html#transport-configuration",
                        "            async: '%env(MESSENGER_TRANSPORT_DSN)%'",
                        "            priority: '%env(MESSENGER_TRANSPORT_DSN)%'",
                        "            # failed: 'doctrine://default?queue_name=failed'",
                        "            # sync: 'sync://'",
                        "",
                        "        routing:",
                        "            # Route your messages to the transports",
                        "            # 'App\\Message\\YourMessage': async",
                        "            'Chill\\CalendarBundle\\Messenger\\Message\\CalendarRangeMessage': async",
                        "            'Chill\\CalendarBundle\\Messenger\\Message\\CalendarRangeRemovedMessage': async",
                        "            'Chill\\CalendarBundle\\Messenger\\Message\\CalendarRemovedMessage': async",
                        "            'Chill\\CalendarBundle\\Messenger\\Message\\CalendarMessage': async",
                        "            'Chill\\CalendarBundle\\Messenger\\Message\\InviteUpdateMessage': async",
                        "            'Chill\\CalendarBundle\\Messenger\\Message\\MSGraphChangeNotificationMessage': async",
                        "            'Chill\\MainBundle\\Service\\ShortMessage\\ShortMessage': async",
                        "            'Chill\\DocGeneratorBundle\\Service\\Messenger\\RequestGenerationMessage': priority",
                        ""
                    ],
                    "executable": false
                },
                "config/packages/security_chill.yaml": {
                    "contents": [
                        "security:",
                        "    access_decision_manager:",
                        "        strategy: unanimous",
                        "        allow_if_all_abstain: false",
                        "    firewalls:",
                        "        dev:",
                        "            pattern: ^/(_(profiler|wdt)|css|images|js)/",
                        "            security: false",
                        "        wopi:",
                        "            pattern: ^/wopi",
                        "            provider: chain_provider",
                        "            stateless: true",
                        "            guard:",
                        "                authenticators:",
                        "                    - lexik_jwt_authentication.jwt_token_authenticator",
                        "        main:",
                        "            # remove during upgrade from symfony 4 to symfony 5 TODO check this",
                        "            #anonymous: ~",
                        "            provider: chain_provider",
                        "            form_login:",
                        "                csrf_parameter: _csrf_token",
                        "                csrf_token_id: authenticate",
                        "                #csrf_provider: security.csrf.token_manager",
                        "            # remove during upgrade from symfony 4 to symfony 5 TODO check this",
                        "            # logout_on_user_change: true",
                        "            logout:",
                        "                path: /logout",
                        "",
                        "            # uncomment to enable impersonate mode in Chill",
                        "            # https://symfony.com/doc/current/security/impersonating_user.html",
                        "            switch_user: true",
                        "",
                        "            # activate different ways to authenticate",
                        "            # https://symfony.com/doc/current/security.html#firewalls-authentication",
                        ""
                    ],
                    "executable": false
                },
                "config/packages/twig_chill.yaml": {
                    "contents": [
                        "twig:",
                        "    ## In Symfony 5, bootstrap_5 theme is supported. But not yet in sf4 !!",
                        "    # see sf5 https://symfony.com/doc/current/form/form_themes.html",
                        "    # see sf4 https://symfony.com/doc/4.4/form/form_themes.html",
                        "    #",
                        "    # While waiting for the upgrade, we get the form theme file",
                        "    # (https://github.com/symfony/symfony/tree/5.4/src/Symfony/Bridge/Twig/Resources/views/Form),",
                        "    # put it in ChillMainBundle/Resources/views/Form/bootstrap5/",
                        "    # and adapt it lightly.",
                        "    #",
                        "    form_themes: ['@ChillMain/Form/bootstrap5/bootstrap_5_horizontal_layout.html.twig']",
                        "",
                        "when@dev:",
                        "    twig:",
                        "        globals:",
                        "            responsive_debug: false",
                        ""
                    ],
                    "executable": false
                }
            },
            "ref": "fbe773251b8fbdc309e125e74c618e170824112d"
        }
    }
}
